---
http_interactions:
- request:
    method: get
    uri: https://api.helpscout.net/v2/users
    body:
      encoding: US-ASCII
      string: ''
    headers:
      Authorization:
      - Bearer <HELP_SCOUT_ACCESS_TOKEN>
      User-Agent:
      - Faraday v0.15.4
      Accept-Encoding:
      - gzip;q=1.0,deflate;q=0.6,identity;q=0.3
      Accept:
      - "*/*"
  response:
    status:
      code: 200
      message: ''
    headers:
      Access-Control-Allow-Origin:
      - "*"
      Cache-Control:
      - no-cache, no-store, max-age=0, must-revalidate
      Content-Type:
      - application/hal+json;charset=UTF-8
      Correlation-Id:
      - d48eb0d4-12dd-4181-9b4b-75d29145fd98#49445028
      Date:
      - Fri, 31 May 2019 05:04:04 GMT
      Expires:
      - '0'
      Pragma:
      - no-cache
      X-Content-Type-Options:
      - nosniff
      - nosniff
      X-Frame-Options:
      - DENY
      X-Ratelimit-Limit-Minute:
      - '400'
      X-Ratelimit-Remaining-Minute:
      - '396'
      X-Xss-Protection:
      - 1; mode=block
      Transfer-Encoding:
      - chunked
      Connection:
      - keep-alive
    body:
      encoding: UTF-8
      string: '{"_embedded":{"users":[{"id":323055,"firstName":"Aaron","lastName":"McNeal","email":"aaron.mcneal@taxjar.com","role":"user","timezone":"America/Chicago","photoUrl":"https://d33v4339jhl8k0.cloudfront.net/users/323055.151085.jpg","createdAt":"2018-11-01T19:51:42Z","updatedAt":"2019-05-30T23:07:22Z","type":"user","_links":{"self":{"href":"https://api.helpscout.net/v2/users/323055"}}},{"id":190987,"firstName":"Aisha","lastName":"Ford","email":"aisha@taxjar.com","role":"admin","timezone":"America/Chicago","photoUrl":"https://d33v4339jhl8k0.cloudfront.net/users/190987.98112.png","createdAt":"2017-04-27T21:11:13Z","updatedAt":"2019-05-27T16:41:34Z","type":"user","_links":{"self":{"href":"https://api.helpscout.net/v2/users/190987"}}},{"id":191154,"firstName":"Alec","lastName":"Carper","email":"alec@taxjar.com","role":"user","timezone":"America/Los_Angeles","createdAt":"2017-04-28T16:23:29Z","updatedAt":"2019-05-31T02:08:38Z","type":"user","_links":{"self":{"href":"https://api.helpscout.net/v2/users/191154"}}},{"id":369607,"firstName":"Alexandra","lastName":"Boyer","email":"alexandra.boyer@taxjar.com","role":"user","timezone":"America/New_York","photoUrl":"https://d33v4339jhl8k0.cloudfront.net/users/369607.178795.jpeg","createdAt":"2019-05-13T15:47:38Z","updatedAt":"2019-05-30T21:57:26Z","type":"user","_links":{"self":{"href":"https://api.helpscout.net/v2/users/369607"}}},{"id":265396,"firstName":"Ali","lastName":"Schlereth","email":"ali@taxjar.com","role":"user","timezone":"America/Chicago","photoUrl":"https://d33v4339jhl8k0.cloudfront.net/users/265396.124884.jpg","createdAt":"2018-03-06T17:49:50Z","updatedAt":"2019-05-30T11:39:06Z","type":"user","_links":{"self":{"href":"https://api.helpscout.net/v2/users/265396"}}},{"id":352821,"firstName":"Amanda","lastName":"Hall","email":"amanda.hall@taxjar.com","role":"user","timezone":"America/New_York","photoUrl":"https://d33v4339jhl8k0.cloudfront.net/users/352821.178035.png","createdAt":"2019-03-11T16:49:53Z","updatedAt":"2019-05-31T02:35:32Z","type":"user","_links":{"self":{"href":"https://api.helpscout.net/v2/users/352821"}}},{"id":348133,"firstName":"Amber","lastName":"Narmore","email":"amber.narmore@taxjar.com","role":"user","timezone":"America/Los_Angeles","photoUrl":"https://d33v4339jhl8k0.cloudfront.net/users/348133.166320.jpeg","createdAt":"2019-02-20T14:32:09Z","updatedAt":"2019-05-31T04:17:25Z","type":"user","_links":{"self":{"href":"https://api.helpscout.net/v2/users/348133"}}},{"id":371762,"firstName":"Amelia","lastName":"Mitchell","email":"amelia.mitchell@taxjar.com","role":"user","timezone":"America/Chicago","createdAt":"2019-05-15T13:24:32Z","updatedAt":"2019-05-29T13:37:12Z","type":"user","_links":{"self":{"href":"https://api.helpscout.net/v2/users/371762"}}},{"id":<TEST_USER_ID>,"firstName":"Andre","lastName":"LeBlanc","email":"<TEST_CUSTOMER_EMAIL>","role":"user","timezone":"America/New_York","photoUrl":"https://d33v4339jhl8k0.cloudfront.net/users/<TEST_USER_ID>.99795.jpg","createdAt":"2017-10-25T17:37:19Z","updatedAt":"2019-05-31T05:02:20Z","type":"user","_links":{"self":{"href":"https://api.helpscout.net/v2/users/<TEST_USER_ID>"}}},{"id":363680,"firstName":"Andrew","lastName":"Gehrhardt","email":"atgehrhardt@gmail.com","role":"user","timezone":"America/New_York","photoUrl":"https://d33v4339jhl8k0.cloudfront.net/users/363680.175708.png","createdAt":"2019-04-23T16:05:53Z","updatedAt":"2019-05-31T03:52:36Z","type":"user","_links":{"self":{"href":"https://api.helpscout.net/v2/users/363680"}}},{"id":305574,"firstName":"Andy","lastName":"Kriger","email":"andy@taxjar.com","role":"user","timezone":"America/New_York","photoUrl":"https://d33v4339jhl8k0.cloudfront.net/users/305574.171646.jpg","createdAt":"2018-08-22T19:03:20Z","updatedAt":"2019-05-30T12:55:47Z","type":"user","_links":{"self":{"href":"https://api.helpscout.net/v2/users/305574"}}},{"id":356601,"firstName":"Angela","lastName":"Salter","email":"angela.salter@taxjar.com","role":"user","timezone":"America/Chicago","photoUrl":"https://d33v4339jhl8k0.cloudfront.net/users/356601.178778.jpeg","createdAt":"2019-03-25T23:48:07Z","updatedAt":"2019-05-30T20:40:13Z","type":"user","_links":{"self":{"href":"https://api.helpscout.net/v2/users/356601"}}},{"id":357726,"firstName":"Angela","lastName":"Lindow","email":"angela.lindow@taxjar.com","role":"user","timezone":"America/Chicago","photoUrl":"https://d33v4339jhl8k0.cloudfront.net/users/357726.173208.jpg","createdAt":"2019-03-29T19:42:35Z","updatedAt":"2019-05-29T21:32:14Z","type":"user","_links":{"self":{"href":"https://api.helpscout.net/v2/users/357726"}}},{"id":281976,"firstName":"Ashley","lastName":"Alongi","email":"ashley@taxjar.com","role":"user","timezone":"America/New_York","photoUrl":"https://d33v4339jhl8k0.cloudfront.net/users/281976.133130.jpg","createdAt":"2018-05-14T15:08:51Z","updatedAt":"2019-05-30T15:25:50Z","type":"user","_links":{"self":{"href":"https://api.helpscout.net/v2/users/281976"}}},{"id":341959,"firstName":"Ashley","lastName":"Brown","email":"ashley.brown@taxjar.com","role":"user","timezone":"America/New_York","photoUrl":"https://d33v4339jhl8k0.cloudfront.net/users/341959.171313.jpg","createdAt":"2019-01-28T14:09:41Z","updatedAt":"2019-05-28T15:33:19Z","type":"user","_links":{"self":{"href":"https://api.helpscout.net/v2/users/341959"}}},{"id":334790,"firstName":"Filing
        AutoFile Team","lastName":"","email":"","role":"user","timezone":"UTC","createdAt":"2018-12-22T02:20:28Z","updatedAt":"2018-12-22T02:22:02Z","type":"team","_links":{"self":{"href":"https://api.helpscout.net/v2/users/334790"}}},{"id":299555,"firstName":"AutoFile
        Verifications","lastName":"","email":"","role":"user","timezone":"UTC","createdAt":"2018-07-26T19:50:37Z","updatedAt":"2018-07-26T19:50:54Z","type":"team","_links":{"self":{"href":"https://api.helpscout.net/v2/users/299555"}}},{"id":191169,"firstName":"Aya","lastName":"Ford","email":"aya@taxjar.com","role":"user","timezone":"America/Chicago","photoUrl":"https://d33v4339jhl8k0.cloudfront.net/users/191169.99796.jpg","createdAt":"2017-04-28T16:38:12Z","updatedAt":"2019-05-24T14:53:14Z","type":"user","_links":{"self":{"href":"https://api.helpscout.net/v2/users/191169"}}},{"id":328733,"firstName":"Becky","lastName":"Werts","email":"thewertszoo@gmail.com","role":"user","timezone":"America/Los_Angeles","createdAt":"2018-11-27T15:09:45Z","updatedAt":"2019-05-22T21:32:19Z","type":"user","_links":{"self":{"href":"https://api.helpscout.net/v2/users/328733"}}},{"id":191174,"firstName":"Bernd","lastName":"Ustorf","email":"bernd@taxjar.com","role":"user","timezone":"America/Los_Angeles","photoUrl":"https://d2ojpxxtu63wzl.cloudfront.net/static/a6cf7276cfe10eeeaea6b418b59f423b_678408796cfbbf69b2c9f98f6b6b5912b8c8895d597464f7a85f68451f378b9f","createdAt":"2017-04-28T16:39:45Z","updatedAt":"2019-04-08T16:33:25Z","type":"user","_links":{"self":{"href":"https://api.helpscout.net/v2/users/191174"}}},{"id":264943,"firstName":"Beth","lastName":"Watson","email":"bethany@taxjar.com","role":"user","timezone":"America/Chicago","photoUrl":"https://d33v4339jhl8k0.cloudfront.net/users/264943.117539.jpg","createdAt":"2018-03-05T14:37:45Z","updatedAt":"2019-05-31T00:56:58Z","type":"user","_links":{"self":{"href":"https://api.helpscout.net/v2/users/264943"}}},{"id":275385,"firstName":"Carie","lastName":"Omland","email":"carie@taxjar.com","role":"user","timezone":"America/Denver","createdAt":"2018-04-16T19:25:59Z","updatedAt":"2019-05-30T19:12:14Z","type":"user","_links":{"self":{"href":"https://api.helpscout.net/v2/users/275385"}}},{"id":358588,"firstName":"Carolyn","lastName":"Urban","email":"carolyn.urban@taxjar.com","role":"admin","timezone":"America/New_York","photoUrl":"https://d33v4339jhl8k0.cloudfront.net/users/358588.176528.jpg","createdAt":"2019-04-02T18:11:43Z","updatedAt":"2019-05-30T12:52:09Z","type":"user","_links":{"self":{"href":"https://api.helpscout.net/v2/users/358588"}}},{"id":270992,"firstName":"Carrie","lastName":"Almany","email":"carrie@taxjar.com","role":"user","timezone":"America/Chicago","photoUrl":"https://d33v4339jhl8k0.cloudfront.net/users/270992.123493.jpg","createdAt":"2018-03-27T19:32:09Z","updatedAt":"2019-05-30T14:07:53Z","type":"user","_links":{"self":{"href":"https://api.helpscout.net/v2/users/270992"}}},{"id":242763,"firstName":"Chris","lastName":"Ralph","email":"chris@taxjar.com","role":"user","timezone":"America/New_York","photoUrl":"https://d33v4339jhl8k0.cloudfront.net/users/242763.103948.jpg","createdAt":"2017-12-04T15:09:31Z","updatedAt":"2019-05-30T16:50:29Z","type":"user","_links":{"self":{"href":"https://api.helpscout.net/v2/users/242763"}}},{"id":377652,"firstName":"Chris","lastName":"Bechler","email":"chris.bechler@taxjar.com","role":"user","timezone":"America/Denver","photoUrl":"https://d33v4339jhl8k0.cloudfront.net/users/377652.180113.jpg","createdAt":"2019-05-20T19:11:08Z","updatedAt":"2019-05-24T19:53:05Z","type":"user","_links":{"self":{"href":"https://api.helpscout.net/v2/users/377652"}}},{"id":330885,"firstName":"Chris","lastName":"Frank","email":"chris.frank@taxjar.com","role":"user","timezone":"America/Los_Angeles","createdAt":"2018-12-05T14:16:49Z","updatedAt":"2019-02-28T21:09:17Z","type":"user","_links":{"self":{"href":"https://api.helpscout.net/v2/users/330885"}}},{"id":368885,"firstName":"Chris","lastName":"Powell","email":"chris.ian.powell@gmail.com","role":"user","timezone":"America/Chicago","createdAt":"2019-05-09T21:23:15Z","updatedAt":"2019-05-31T00:43:00Z","type":"user","_links":{"self":{"href":"https://api.helpscout.net/v2/users/368885"}}},{"id":276329,"firstName":"Clete","lastName":"Werts","email":"clete@taxjar.com","role":"user","timezone":"America/Los_Angeles","createdAt":"2018-04-19T16:49:10Z","updatedAt":"2019-05-30T20:56:22Z","type":"user","_links":{"self":{"href":"https://api.helpscout.net/v2/users/276329"}}},{"id":191170,"firstName":"Corin","lastName":"Schedler","email":"corin@taxjar.com","role":"user","timezone":"America/Los_Angeles","photoUrl":"https://d33v4339jhl8k0.cloudfront.net/users/191170.100549.png","createdAt":"2017-04-28T16:38:24Z","updatedAt":"2019-05-30T15:34:16Z","type":"user","_links":{"self":{"href":"https://api.helpscout.net/v2/users/191170"}}},{"id":300516,"firstName":"Cory","lastName":"Schmitt","email":"cory@taxjar.com","role":"user","timezone":"America/Los_Angeles","photoUrl":"https://d33v4339jhl8k0.cloudfront.net/users/300516.151235.jpg","createdAt":"2018-07-31T15:30:22Z","updatedAt":"2019-05-30T19:03:05Z","type":"user","_links":{"self":{"href":"https://api.helpscout.net/v2/users/300516"}}},{"id":355939,"firstName":"Dallen","lastName":"Dalton","email":"dallen.dalton@taxjar.com","role":"user","timezone":"America/Denver","photoUrl":"https://d33v4339jhl8k0.cloudfront.net/users/355939.171299.jpg","createdAt":"2019-03-22T10:50:38Z","updatedAt":"2019-05-30T15:49:36Z","type":"user","_links":{"self":{"href":"https://api.helpscout.net/v2/users/355939"}}},{"id":272342,"firstName":"Darcy","lastName":"Boles","email":"darcy@taxjar.com","role":"user","timezone":"America/Los_Angeles","photoUrl":"https://d33v4339jhl8k0.cloudfront.net/users/272342.141537.png","createdAt":"2018-04-04T00:45:49Z","updatedAt":"2019-05-30T21:49:58Z","type":"user","_links":{"self":{"href":"https://api.helpscout.net/v2/users/272342"}}},{"id":336498,"firstName":"Data
        Manipulation","lastName":"","email":"","role":"user","timezone":"UTC","createdAt":"2019-01-04T16:35:40Z","updatedAt":"2019-01-04T16:36:14Z","type":"team","_links":{"self":{"href":"https://api.helpscout.net/v2/users/336498"}}},{"id":348132,"firstName":"David","lastName":"Bernheisel","email":"david.bernheisel@taxjar.com","role":"user","timezone":"America/New_York","photoUrl":"https://secure.gravatar.com/avatar/78aa2e8560aa725c5320b65fb8008a7b","createdAt":"2019-02-20T14:31:17Z","updatedAt":"2019-05-30T13:31:47Z","type":"user","_links":{"self":{"href":"https://api.helpscout.net/v2/users/348132"}}},{"id":348142,"firstName":"Derek","lastName":"Hopper","email":"derek.hopper@taxjar.com","role":"user","timezone":"America/New_York","photoUrl":"https://d33v4339jhl8k0.cloudfront.net/users/348142.166279.jpeg","createdAt":"2019-02-20T14:39:54Z","updatedAt":"2019-05-28T11:50:37Z","type":"user","_links":{"self":{"href":"https://api.helpscout.net/v2/users/348142"}}},{"id":315683,"firstName":"Dev
        Reporting and Filing","lastName":"","email":"","role":"user","timezone":"UTC","createdAt":"2018-10-02T21:38:26Z","updatedAt":"2018-10-25T17:57:45Z","type":"team","_links":{"self":{"href":"https://api.helpscout.net/v2/users/315683"}}},{"id":354859,"firstName":"Dev
        Billing","lastName":"","email":"","role":"user","timezone":"UTC","createdAt":"2019-03-18T23:04:33Z","updatedAt":"2019-03-18T23:05:14Z","type":"team","_links":{"self":{"href":"https://api.helpscout.net/v2/users/354859"}}},{"id":352989,"firstName":"Dev
        SmartCalcs","lastName":"","email":"","role":"user","timezone":"UTC","createdAt":"2019-03-12T01:52:56Z","updatedAt":"2019-03-12T02:13:44Z","type":"team","_links":{"self":{"href":"https://api.helpscout.net/v2/users/352989"}}},{"id":354858,"firstName":"Dev
        Calculations","lastName":"","email":"","role":"user","timezone":"UTC","createdAt":"2019-03-18T23:02:48Z","updatedAt":"2019-03-18T23:03:41Z","type":"team","_links":{"self":{"href":"https://api.helpscout.net/v2/users/354858"}}},{"id":379430,"firstName":"Dev
        Calculations Data","lastName":"","email":"","role":"user","timezone":"UTC","createdAt":"2019-05-22T16:05:47Z","updatedAt":"2019-05-22T16:06:08Z","type":"team","_links":{"self":{"href":"https://api.helpscout.net/v2/users/379430"}}},{"id":352991,"firstName":"Dev
        Experience","lastName":"","email":"","role":"user","timezone":"UTC","createdAt":"2019-03-12T01:54:29Z","updatedAt":"2019-03-12T01:55:16Z","type":"team","_links":{"self":{"href":"https://api.helpscout.net/v2/users/352991"}}},{"id":352992,"firstName":"Dev
        Imports","lastName":"","email":"","role":"user","timezone":"UTC","createdAt":"2019-03-12T01:55:32Z","updatedAt":"2019-03-12T01:56:15Z","type":"team","_links":{"self":{"href":"https://api.helpscout.net/v2/users/352992"}}},{"id":315681,"firstName":"Dev
        Integrations","lastName":"","email":"","role":"user","timezone":"UTC","createdAt":"2018-10-02T21:33:26Z","updatedAt":"2018-10-02T21:33:50Z","type":"team","_links":{"self":{"href":"https://api.helpscout.net/v2/users/315681"}}},{"id":315682,"firstName":"Dev
        Platform","lastName":"","email":"","role":"user","timezone":"UTC","createdAt":"2018-10-02T21:37:49Z","updatedAt":"2018-10-02T21:37:59Z","type":"team","_links":{"self":{"href":"https://api.helpscout.net/v2/users/315682"}}},{"id":380697,"firstName":"Do
        Not Assign FBA Alerts","lastName":"","email":"","role":"user","timezone":"UTC","createdAt":"2019-05-24T12:40:13Z","updatedAt":"2019-05-24T12:40:25Z","type":"team","_links":{"self":{"href":"https://api.helpscout.net/v2/users/380697"}}},{"id":348154,"firstName":"Edwin","lastName":"Melendez","email":"edwin.melendez@taxjar.com","role":"user","timezone":"America/New_York","photoUrl":"https://d33v4339jhl8k0.cloudfront.net/users/348154.168612.jpg","createdAt":"2019-02-20T14:51:39Z","updatedAt":"2019-05-30T15:50:31Z","type":"user","_links":{"self":{"href":"https://api.helpscout.net/v2/users/348154"}}},{"id":348131,"firstName":"Elisa","lastName":"Campos","email":"elisa.campos@taxjar.com","role":"user","timezone":"America/Denver","createdAt":"2019-02-20T14:30:27Z","updatedAt":"2019-04-20T19:04:42Z","type":"user","_links":{"self":{"href":"https://api.helpscout.net/v2/users/348131"}}},{"id":363429,"firstName":"Elizabeth","lastName":"Perez
        Gonzalez","email":"elizabeth.perezgonzalez+taxjar@gmail.com","role":"user","timezone":"America/Los_Angeles","createdAt":"2019-04-22T19:30:13Z","updatedAt":"2019-05-09T12:02:40Z","type":"user","_links":{"self":{"href":"https://api.helpscout.net/v2/users/363429"}}},{"id":339077,"firstName":"Emily","lastName":"Andrysick","email":"emily.andrysick@taxjar.com","role":"user","timezone":"America/Los_Angeles","createdAt":"2019-01-15T17:43:39Z","updatedAt":"2019-05-23T19:44:36Z","type":"user","_links":{"self":{"href":"https://api.helpscout.net/v2/users/339077"}}}]},"_links":{"first":{"href":"https://api.helpscout.net/v2/users/?page=1"},"last":{"href":"https://api.helpscout.net/v2/users/?page=3"},"next":{"href":"https://api.helpscout.net/v2/users/?page=2"},"page":{"href":"https://api.helpscout.net/v2/users/"},"self":{"href":"https://api.helpscout.net/v2/users/"}},"page":{"size":50,"totalElements":128,"totalPages":3,"number":1}}'
    http_version: 
  recorded_at: Fri, 31 May 2019 05:04:04 GMT
recorded_with: VCR 5.0.0
